%YAML 1.1
%TAG !u! tag:unity3d.com,2011:
--- !u!1045 &1
EditorBuildSettings:
  m_ObjectHideFlags: 0
  serializedVersion: 2
  m_Scenes:
  - enabled: 1
    path: Assets/_Scenes/Start_Menu.unity
    guid: 0652f1180a343fd4c8620333fa497546
  - enabled: 1
    path: Assets/_Scenes/Game_Screen.unity
    guid: 2cda990e2423bbf4892e6590ba056729
  m_configObjects: {}
